<?xml version="1.0" encoding="UTF-8" standalone="no"?>
<svg
   xmlns:dc="http://purl.org/dc/elements/1.1/"
   xmlns:cc="http://creativecommons.org/ns#"
   xmlns:rdf="http://www.w3.org/1999/02/22-rdf-syntax-ns#"
   xmlns:svg="http://www.w3.org/2000/svg"
   xmlns="http://www.w3.org/2000/svg"
   width="100"
   height="24"
   viewBox="0 0 100 24"
   id="svg3421"
   version="1.1">
  <defs
     id="defs3423" />
  <metadata
     id="metadata3426">
    <rdf:RDF>
      <cc:Work
         rdf:about="">
        <dc:format>image/svg+xml</dc:format>
        <dc:type
           rdf:resource="http://purl.org/dc/dcmitype/StillImage" />
        <dc:title></dc:title>
      </cc:Work>
    </rdf:RDF>
  </metadata>
  <path
     d="m 13.992748,14.911969 q -2.963611,3.041737 -7.1526827,3.041737 -3.0011255,0 -4.9268478,-1.854735 Q -8.1482248e-8,14.231906 -8.1482248e-8,11.313771 q 0,-2.9057044 1.388020681482248,-5.5270138 1.3880205,-2.6213094 3.62636,-4.1916488 2.2508442,-1.57033941 4.4141556,-1.57033941 1.8131798,0 2.9511068,1.07573021 1.150431,1.0757303 1.150431,2.7944326 0,2.2380717 -1.38802,3.8825926 -1.375516,1.632091 -3.2262101,1.632091 -0.9753658,0 -1.6006003,-0.4946092 -0.6252345,-0.4945098 -0.6252345,-1.2735143 0,-0.6677323 0.5377016,-1.2365229 0.4001501,0.7295833 1.1004128,0.7295833 1.0003752,0 1.8506945,-1.2365229 0.862823,-1.2364236 0.862823,-2.7079207 0,-1.0262097 -0.487682,-1.632091 Q 10.07878,0.95213636 9.27848,0.95213636 q -1.1629363,0 -2.4884334,1.43430694 -1.3129924,1.434307 -2.2008254,3.6847092 -0.8753283,2.2504022 -0.8753283,4.2781605 0,2.584318 1.4755534,4.24117 1.4880581,1.656851 3.7764163,1.656851 1.4505444,0 2.6134804,-0.667733 1.162936,-0.667632 2.413405,-2.089609 l 0,1.421977 z"
     style="font-style:normal;font-variant:normal;font-weight:bold;font-stretch:normal;font-size:medium;line-height:125%;font-family:'Script MT Bold';-inkscape-font-specification:'Script MT Bold,  Bold';letter-spacing:0px;word-spacing:0px;fill:#000000;fill-opacity:1;stroke:none;stroke-width:1px;stroke-linecap:butt;stroke-linejoin:miter;stroke-opacity:1"
     id="path3438" />
  <path
     d="m 22.245843,14.911969 q -1.700637,1.545579 -2.988621,2.287492 -1.275478,0.729484 -2.438414,0.729484 -1.338002,0 -2.163311,-1.026309 -0.812805,-1.026209 -0.812805,-2.757341 0,-2.59655 1.137927,-6.2318376 1.137927,-3.6351886 2.763536,-6.701686 l 3.176191,-1.16224212 q 0.150057,-0.0497194566 0.225085,-0.0497194566 0.362635,0 0.58772,0.5316999066 0.237589,0.51936947 0.237589,1.40964617 0,2.5223676 -1.175441,4.884042 -1.17544,2.3616743 -3.676378,5.0448351 -0.100042,1.285944 -0.100042,1.768123 0,1.07573 0.40015,1.706372 0.40015,0.630642 1.062898,0.630642 0.675254,0 1.43804,-0.482279 0.762786,-0.48218 2.325872,-2.003098 l 0,1.421977 z m -4.789296,-4.834621 q 1.588095,-1.7434629 2.575966,-3.9072538 0.987871,-2.1638903 0.987871,-3.7217998 0,-0.4575185 -0.137552,-0.7295834 -0.137552,-0.2843953 -0.350131,-0.2843953 -0.462673,0 -1.350507,2.2751625 -0.875328,2.2751625 -1.725647,6.3678698 z"
     style="font-style:normal;font-variant:normal;font-weight:bold;font-stretch:normal;font-size:medium;line-height:125%;font-family:'Script MT Bold';-inkscape-font-specification:'Script MT Bold,  Bold';letter-spacing:0px;word-spacing:0px;fill:#000000;fill-opacity:1;stroke:none;stroke-width:1px;stroke-linecap:butt;stroke-linejoin:miter;stroke-opacity:1"
     id="path3440" />
  <path
     d="m 31.624362,14.911969 q -1.588095,1.545579 -2.85107,2.287492 -1.262973,0.729484 -2.788545,0.729484 -1.700638,0 -2.751032,-1.07573 -1.037889,-1.07573 -1.037889,-2.831523 0,-2.621309 1.838189,-4.7356792 1.83819,-2.1267996 4.076529,-2.1267996 1.162937,0 1.863199,0.5935509 0.700263,0.5934515 0.700263,1.5579096 0,2.5595573 -5.502064,4.1545583 0.500187,2.411195 2.613481,2.411195 0.825309,0 1.57559,-0.432759 0.750282,-0.445188 2.263349,-1.953676 l 0,1.421977 z m -6.552458,-2.287493 q 3.201201,-0.890277 3.201201,-3.2890421 0,-1.1870023 -0.875328,-1.1870023 -0.82531,0 -1.575591,1.2488534 -0.750282,1.236423 -0.750282,3.227191 z"
     style="font-style:normal;font-variant:normal;font-weight:bold;font-stretch:normal;font-size:medium;line-height:125%;font-family:'Script MT Bold';-inkscape-font-specification:'Script MT Bold,  Bold';letter-spacing:0px;word-spacing:0px;fill:#000000;fill-opacity:1;stroke:none;stroke-width:1px;stroke-linecap:butt;stroke-linejoin:miter;stroke-opacity:1"
     id="path3442" />
  <path
     d="m 42.853572,14.911969 q -0.63774,0.55636 -1.237964,0.791335 -0.600225,0.222544 -0.950357,0.222544 -0.900337,0 -1.788171,-0.692393 -1.800675,2.69549 -4.126547,2.69549 -1.450544,0 -2.350882,-1.07573 -0.900337,-1.07573 -0.900337,-2.856283 0,-2.819094 2.025759,-4.8346212 2.02576,-2.0277585 4.839315,-2.0277585 1.062899,0 1.550582,0.2348748 0.500187,0.2225443 0.612729,0.5316999 0.112543,0.3091556 0.112543,0.7790045 0,2.3121535 -1.275479,5.6753765 0.63774,0.581221 1.338003,0.581221 0.837814,0 2.150806,-1.446737 l 0,1.421977 z M 38.727024,8.0000687 q -0.18757,-0.074579 -0.537702,-0.074579 -1.625609,0 -2.550956,1.6816116 -0.912843,1.6816119 -0.912843,3.9320139 0,1.248754 0.400151,1.941246 0.40015,0.692394 1.112917,0.692394 0.887833,0 1.925722,-1.619761 -1.17544,-1.459067 -1.17544,-3.140679 0,-1.9783371 1.738151,-3.4126441 z"
     style="font-style:normal;font-variant:normal;font-weight:bold;font-stretch:normal;font-size:medium;line-height:125%;font-family:'Script MT Bold';-inkscape-font-specification:'Script MT Bold,  Bold';letter-spacing:0px;word-spacing:0px;fill:#000000;fill-opacity:1;stroke:none;stroke-width:1px;stroke-linecap:butt;stroke-linejoin:miter;stroke-opacity:1"
     id="path3444" />
  <path
     d="m 48.805806,9.2612525 q 0.900337,-1.0757302 1.700638,-1.5826698 0.8003,-0.5193695 1.775666,-0.5193695 1.262973,0 2.050768,0.9644581 0.8003,0.9521276 0.8003,2.5100367 0,2.732681 -1.913217,5.020174 -1.900713,2.275063 -4.139052,2.275063 -0.625235,0 -0.987871,-0.136032 -0.362635,-0.136032 -0.950356,-0.630542 -0.900338,3.919584 -1.162936,6.281258 l -3.176192,0.55646 q 0.887833,-5.786748 2.263349,-11.72186 -1.650619,2.13913 -2.225835,2.63374 l -0.287607,0 0,-1.112821 q 2.37589,-2.534798 3.913967,-6.1576561 l 2.826061,-0.5069396 -0.487683,2.1267002 z m -1.43804,6.6151745 q 0.650244,1.0633 1.43804,1.0633 1.262973,0 2.225834,-1.891726 0.975366,-1.904255 0.975366,-3.709469 0,-0.952128 -0.40015,-1.5332492 -0.387645,-0.5934514 -1.01288,-0.5934514 -0.487683,0 -1.025385,0.4327582 -0.537701,0.4327584 -0.812804,1.0138794 -0.275104,0.56879 -0.625235,2.003097 l -0.762786,3.214861 z"
     style="font-style:normal;font-variant:normal;font-weight:bold;font-stretch:normal;font-size:medium;line-height:125%;font-family:'Script MT Bold';-inkscape-font-specification:'Script MT Bold,  Bold';letter-spacing:0px;word-spacing:0px;fill:#000000;fill-opacity:1;stroke:none;stroke-width:1px;stroke-linecap:butt;stroke-linejoin:miter;stroke-opacity:1"
     id="path3446" />
  <path
     d="m 70.088787,14.911969 q -2.000751,1.879395 -2.863574,2.448186 -0.862824,0.56879 -1.650619,0.56879 -1.975741,0 -1.8632,-3.449735 -1.250468,1.768124 -2.313366,2.608979 -1.050395,0.840756 -2.175817,0.840756 -1.100413,0 -1.875703,-1.013879 -0.762787,-1.026309 -0.762787,-2.510037 0,-1.854735 1.025386,-3.536346 1.037888,-1.6816119 2.650994,-2.7202514 1.613105,-1.0386396 2.851069,-1.0386396 1.563086,0 2.18832,1.4219766 l 2.550957,-1.3972163 0.700263,0 -1.100413,3.6228587 q -0.850319,2.732581 -0.850319,3.74646 0,1.0634 0.762787,1.0634 0.487682,0 1.075403,-0.50694 0.58772,-0.519369 1.650619,-1.570339 l 0,1.421977 z m -9.153433,0.680062 q 1.250469,0 2.350881,-2.102039 1.112917,-2.11437 1.112917,-3.894923 0,-0.6923932 -0.312617,-1.0757303 -0.312617,-0.3956674 -0.837813,-0.3956674 -1.25047,0 -2.375891,2.1020397 -1.112919,2.102039 -1.112919,3.870162 0,0.667733 0.325123,1.088061 0.337626,0.408097 0.850319,0.408097 z"
     style="font-style:normal;font-variant:normal;font-weight:bold;font-stretch:normal;font-size:medium;line-height:125%;font-family:'Script MT Bold';-inkscape-font-specification:'Script MT Bold,  Bold';letter-spacing:0px;word-spacing:0px;fill:#000000;fill-opacity:1;stroke:none;stroke-width:1px;stroke-linecap:butt;stroke-linejoin:miter;stroke-opacity:1"
     id="path3448" />
  <path
     d="m 77.291487,14.911969 q -1.575591,1.545579 -2.726022,2.287492 -1.150432,0.729484 -2.188321,0.729484 -1.075403,0 -1.750657,-0.890276 -0.662749,-0.902607 -0.662749,-2.361675 0,-1.285944 0.625235,-3.400313 l 0.550207,-1.8670656 -0.962862,0.049719 0.40015,-1.941346 1.187947,-0.04972 1.17544,-3.8578323 3.351257,-0.6800628 -1.275478,4.302921 1.738151,-0.098444 -0.412654,1.9041558 -1.938227,0.1483629 -0.837814,2.7696726 q -0.425159,1.446736 -0.425159,2.299922 0,0.581121 0.287607,0.952029 0.300112,0.358576 0.762786,0.358576 0.637739,0 1.262973,-0.395667 0.625236,-0.407998 1.83819,-1.681612 l 0,1.421977 z"
     style="font-style:normal;font-variant:normal;font-weight:bold;font-stretch:normal;font-size:medium;line-height:125%;font-family:'Script MT Bold';-inkscape-font-specification:'Script MT Bold,  Bold';letter-spacing:0px;word-spacing:0px;fill:#000000;fill-opacity:1;stroke:none;stroke-width:1px;stroke-linecap:butt;stroke-linejoin:miter;stroke-opacity:1"
     id="path3450" />
  <path
     d="m 86.644999,14.911969 q -3.138676,3.041737 -4.839314,3.041737 -0.762786,0 -1.287984,-0.630642 -0.525197,-0.642972 -0.525197,-1.58267 0,-1.743462 1.888209,-4.673927 -0.925347,0.469948 -2.025761,0.655402 -0.812804,1.483728 -2.550956,3.1901 l -0.287607,0 0,-1.112821 q 0.975365,-1.001549 1.763161,-2.151461 -1.075403,-0.469849 -1.075403,-1.397216 0,-0.9521278 0.650243,-2.027858 0.662749,-1.0880607 1.81318,-1.0880607 0.975366,0 0.975366,0.989119 0,0.7790045 -0.562711,2.2256417 2.075779,-0.222544 3.62636,-3.1405792 l 1.137926,-0.04972 -1.162936,3.1654387 q -0.725271,2.003098 -0.937851,2.732582 -0.212579,0.717153 -0.212579,1.273614 0,0.51927 0.237589,0.828425 0.250093,0.309056 0.662748,0.309056 0.450169,0 0.862823,-0.296725 0.412656,-0.309156 1.850694,-1.681612 l 0,1.421977 z"
     style="font-style:normal;font-variant:normal;font-weight:bold;font-stretch:normal;font-size:medium;line-height:125%;font-family:'Script MT Bold';-inkscape-font-specification:'Script MT Bold,  Bold';letter-spacing:0px;word-spacing:0px;fill:#000000;fill-opacity:1;stroke:none;stroke-width:1px;stroke-linecap:butt;stroke-linejoin:miter;stroke-opacity:1"
     id="path3452" />
  <path
     d="m 100.00001,14.911969 q -2.000754,1.879395 -2.863577,2.448186 -0.862824,0.56879 -1.650619,0.56879 -1.975741,0 -1.863199,-3.449735 -1.250469,1.768124 -2.313367,2.608979 -1.050395,0.840756 -2.175817,0.840756 -1.100413,0 -1.875704,-1.013879 -0.762786,-1.026309 -0.762786,-2.510037 0,-1.854735 1.025386,-3.536346 1.037888,-1.6816119 2.650994,-2.7202514 1.613105,-1.0386396 2.851069,-1.0386396 1.563086,0 2.18832,1.4219766 l 2.550957,-1.3972163 0.700263,0 -1.100413,3.6228587 q -0.850319,2.732581 -0.850319,3.74646 0,1.0634 0.762787,1.0634 0.487682,0 1.075403,-0.50694 0.58772,-0.519369 1.650622,-1.570339 l 0,1.421977 z m -9.153436,0.680062 q 1.250469,0 2.350881,-2.102039 1.112917,-2.11437 1.112917,-3.894923 0,-0.6923932 -0.312617,-1.0757303 -0.312617,-0.3956674 -0.837813,-0.3956674 -1.25047,0 -2.375892,2.1020397 -1.112918,2.102039 -1.112918,3.870162 0,0.667733 0.325123,1.088061 0.337626,0.408097 0.850319,0.408097 z"
     style="font-style:normal;font-variant:normal;font-weight:bold;font-stretch:normal;font-size:medium;line-height:125%;font-family:'Script MT Bold';-inkscape-font-specification:'Script MT Bold,  Bold';letter-spacing:0px;word-spacing:0px;fill:#000000;fill-opacity:1;stroke:none;stroke-width:1px;stroke-linecap:butt;stroke-linejoin:miter;stroke-opacity:1"
     id="path3454" />
</svg>
