<?xml version="1.0" encoding="UTF-8" standalone="no"?>
<svg
   width="80"
   height="32"
   viewBox="0 0 80 32"
   version="1.1">

  <path
     d="M 3.6327819,-6.001566e-5 C 2.934718,0.28479005 2.236654,0.44146259 0.81203361,0.65502515 l -0.0997235,0.39883005 0.64107916,0 c 0.3276627,0 0.484371,0.1138801 0.484371,0.3560376 0,0.3275426 -0.2706779,1.9794531 -0.6838178,4.1726686 C 0.71231014,7.9323495 0.28492403,9.7979225 0.04273856,10.410315 L 0.1852006,10.538493 C 1.0399729,10.353325 1.2679121,10.310633 1.681052,10.282138 1.709544,9.81212 1.738037,9.5842599 1.9089913,8.7726022 2.0799458,7.918052 2.1084381,7.832667 2.4076084,7.4766294 l 0.4416323,-0.4842151 0.8120336,2.207413 c 0.3846474,1.0396177 0.6125868,1.3813577 0.9402495,1.3813577 0.356155,0 0.9544956,-0.28485 1.7380368,-0.8402525 L 6.9663935,9.2995099 6.8239314,8.8864823 6.4392839,9.1285398 C 6.1116213,9.3280049 5.9264206,9.4133899 5.7839586,9.4133899 c -0.2421855,0 -0.5840943,-0.4699176 -0.8405261,-1.1393003 L 4.0174293,5.8104215 C 4.6727547,5.0413563 5.3565724,4.6711212 6.0973751,4.6711212 c 0.213693,0 0.3846475,0.028995 0.6980639,0.11388 L 7.0803631,3.7881759 C 6.86667,3.7031908 6.6387308,3.6599984 6.4677763,3.6599984 5.7982047,3.6599984 5.1713718,4.0017385 4.273861,4.8561887 3.4475812,5.6394514 2.7495172,6.4085166 2.179669,7.1917793 L 3.5330584,1.0538552 c 0.014247,-0.0859849 0.071232,-0.27065251 0.142462,-0.52700758 0.014247,-0.0849851 0.042739,-0.19936505 0.099724,-0.3987301 L 3.6327818,-6.001566e-5 Z"
     style="font-style:italic;font-variant:normal;font-weight:bold;font-stretch:normal;font-size:medium;line-height:125%;font-family:'URW Palladio L';-inkscape-font-specification:'URW Palladio L Italic';text-align:start;letter-spacing:0px;word-spacing:0px;text-anchor:start;fill:#000000;fill-opacity:1;stroke:none;stroke-width:1px;stroke-linecap:butt;stroke-linejoin:miter;stroke-opacity:1"
     id="path3510" />
  <path
     d="M 13.813697,4.0302335 C 13.144126,3.7453834 12.816463,3.6599984 12.360584,3.6599984 c -0.541354,0 -0.883263,0.084985 -1.267912,0.3275426 C 10.337624,4.4859536 9.3546359,5.3119088 9.1266966,5.6822439 8.6280794,6.4370116 8.1152161,8.3737721 8.1152161,9.5130724 c 0,0.6265906 0.3276627,1.0681126 0.769295,1.0681126 1.0684653,0 2.3648699,-1.2531801 3.6897669,-3.5745732 l -0.52711,2.150423 c -0.07123,0.2706526 -0.09973,0.5412052 -0.09973,0.7832627 0,0.3988305 0.170954,0.6408875 0.455878,0.6408875 0.598341,0 1.410374,-0.45572 2.478839,-1.4098527 L 14.711204,8.7441072 14.42628,8.9719673 c -0.256431,0.199365 -0.669571,0.4272251 -0.783541,0.4272251 -0.11397,0 -0.156708,-0.070988 -0.199447,-0.3275426 0,-0.013997 0.05699,-0.2990476 0.142462,-0.7120752 l 0.64108,-3.0476658 C 14.326561,4.8704862 14.42628,4.5144486 14.682712,3.816571 L 14.454772,3.6457009 13.813693,4.0302335 Z M 12.859202,4.7138137 C 12.659755,5.995489 12.18963,7.0920968 11.391843,8.1602096 10.807748,8.9291748 10.266392,9.4133899 9.9672225,9.4133899 c -0.1424619,0 -0.2564316,-0.2420576 -0.2564316,-0.5269076 0,-0.5269077 0.3134161,-1.979553 0.6695711,-3.0760608 0.313417,-0.9827278 0.71231,-1.4099529 1.324898,-1.4099529 0.384647,0 0.655324,0.070988 1.153942,0.3133451 z"
     style="font-style:italic;font-variant:normal;font-weight:bold;font-stretch:normal;font-size:medium;line-height:125%;font-family:'URW Palladio L';-inkscape-font-specification:'URW Palladio L Italic';text-align:start;letter-spacing:0px;word-spacing:0px;text-anchor:start;fill:#000000;fill-opacity:1;stroke:none;stroke-width:1px;stroke-linecap:butt;stroke-linejoin:miter;stroke-opacity:1"
     id="path3512" />
  <path
     d="m 19.364597,8.7156122 -0.427386,0.3275426 c -0.256432,0.199365 -0.612587,0.3702351 -0.755049,0.3702351 -0.09973,0 -0.170954,-0.084985 -0.170954,-0.1993651 0,-0.3275425 0.05699,-0.8117577 0.170954,-1.2959728 l 1.524344,-6.8641968 c 0.01424,-0.0859849 0.07123,-0.27065251 0.142462,-0.52700758 0.01424,-0.0849851 0.05698,-0.24205757 0.09973,-0.3987301 L 19.806233,-6.001566e-5 C 19.108169,0.28479005 18.410106,0.44146259 16.985485,0.65502515 l -0.09973,0.39883005 0.641079,0 c 0.327662,0 0.498617,0.1281776 0.498617,0.3560376 0,0.1280776 -0.01424,0.2705526 -0.05699,0.4414227 L 16.55809,8.2598921 c -0.213693,0.9399352 -0.22794,1.0823103 -0.22794,1.5665254 0,0.4984125 0.156709,0.7547675 0.455879,0.7547675 0.612586,0 1.12545,-0.270552 2.77801,-1.4810402 L 19.364592,8.7156122 Z"
     style="font-style:italic;font-variant:normal;font-weight:bold;font-stretch:normal;font-size:medium;line-height:125%;font-family:'URW Palladio L';-inkscape-font-specification:'URW Palladio L Italic';text-align:start;letter-spacing:0px;word-spacing:0px;text-anchor:start;fill:#000000;fill-opacity:1;stroke:none;stroke-width:1px;stroke-linecap:butt;stroke-linejoin:miter;stroke-opacity:1"
     id="path3514" />
  <path
     d="m 25.547226,8.7156122 c -1.068466,0.6835802 -1.72379,0.9541328 -2.307885,0.9541328 -0.655326,0 -1.039973,-0.4272252 -1.039973,-1.1677953 0,-0.2848501 0.01424,-0.4984127 0.07123,-0.9114403 1.210928,-0.2705525 1.738037,-0.4272251 2.336378,-0.7120752 1.01148,-0.4841151 1.524343,-1.1393002 1.524343,-1.9652555 0,-0.7690652 -0.512863,-1.2531803 -1.324897,-1.2531803 -1.125449,0 -2.820748,0.9826278 -3.37635,1.9652555 -0.470124,0.8259552 -0.854772,2.3212931 -0.854772,3.2897234 0,1.0396177 0.655325,1.6662077 1.72379,1.6662077 0.854772,0 1.567083,-0.28485 2.977457,-1.2104876 l 0.213693,-0.1281776 c 0.05699,-0.042992 0.128216,-0.085985 0.199447,-0.1281775 L 25.547227,8.7156122 Z M 22.327583,7.2202743 22.52703,6.3943191 c 0.313417,-1.3244678 0.883265,-2.0507405 1.581329,-2.0507405 0.427386,0 0.683818,0.2847501 0.683818,0.7547677 0,0.8686477 -0.726556,1.6092179 -1.880499,1.951058 l -0.584095,0.17087 z"
     style="font-style:italic;font-variant:normal;font-weight:bold;font-stretch:normal;font-size:medium;line-height:125%;font-family:'URW Palladio L';-inkscape-font-specification:'URW Palladio L Italic';text-align:start;letter-spacing:0px;word-spacing:0px;text-anchor:start;fill:#000000;fill-opacity:1;stroke:none;stroke-width:1px;stroke-linecap:butt;stroke-linejoin:miter;stroke-opacity:1"
     id="path3516" />
  <path
     d="m 26.919983,5.6252539 0.455878,-0.3133451 c 0.227939,-0.1566725 0.427386,-0.2420575 0.584095,-0.2420575 0.09973,0 0.156708,0.084985 0.156708,0.2420575 0,0.7832627 -0.555602,3.0903583 -1.210927,5.0556142 l 0.142462,0.156672 c 0.313416,-0.09998 0.997234,-0.213562 1.510097,-0.242057 0.08548,-0.6550856 0.327663,-1.6520108 0.512863,-2.1362259 0.541356,-1.5095354 1.83776,-3.0760608 2.521578,-3.0760608 0.185201,0 0.284924,0.099982 0.284924,0.2990476 0,0.22786 -0.142462,0.8687477 -0.356154,1.5950204 -0.455879,1.5950204 -0.683818,2.6061431 -0.683818,3.0191707 0,0.34174 0.213692,0.598095 0.512863,0.598095 0.512864,0 1.082712,-0.28485 2.151177,-1.0823101 l 0.413139,-0.2990476 -0.1852,-0.3845326 -0.41314,0.2848501 c -0.341909,0.2278601 -0.498617,0.3132451 -0.641079,0.3132451 -0.09973,0 -0.156708,-0.084985 -0.156708,-0.2420576 0,-0.256355 0.07123,-0.6550851 0.1852,-1.1108053 l 0.683818,-2.6204406 c 0.142462,-0.5411052 0.22794,-0.9968253 0.22794,-1.1819928 0,-0.3560376 -0.22794,-0.5980952 -0.555603,-0.5980952 -0.669571,0 -1.823513,0.7262727 -2.778009,1.780088 -0.498617,0.5269076 -0.740802,0.8829452 -1.23942,1.7374954 l 0.242186,-0.8545502 c 0.398894,-1.4240504 0.484371,-1.837078 0.484371,-2.2358081 0,-0.2706525 -0.142462,-0.4272251 -0.384648,-0.4272251 -0.341909,0 -0.812034,0.2135626 -1.453112,0.6977777 l -1.196682,0.8829452 0.185201,0.3845326 z"
     style="font-style:italic;font-variant:normal;font-weight:bold;font-stretch:normal;font-size:medium;line-height:125%;font-family:'URW Palladio L';-inkscape-font-specification:'URW Palladio L Italic';text-align:start;letter-spacing:0px;word-spacing:0px;text-anchor:start;fill:#000000;fill-opacity:1;stroke:none;stroke-width:1px;stroke-linecap:butt;stroke-linejoin:miter;stroke-opacity:1"
     id="path3518" />
  <path
     d="m 40.064106,3.7881759 c -0.413139,-0.099982 -0.641078,-0.1281775 -0.926003,-0.1281775 -0.384648,0 -0.698064,0.070988 -1.068466,0.2420576 -0.812033,0.3702351 -1.695298,1.0111227 -2.051452,1.4810404 -0.569849,0.7263726 -1.05422,2.5634506 -1.05422,3.959106 0,0.7120756 0.384648,1.2389826 0.897511,1.2389826 0.441633,0 0.954496,-0.28485 1.65256,-0.882945 0.669571,-0.5838977 1.139696,-1.2104879 2.065699,-2.7485182 l -0.569848,2.3354906 c -0.07123,0.2706525 -0.09973,0.5127101 -0.09973,0.7120751 0,0.3275425 0.227939,0.5838975 0.498617,0.5838975 0.313416,0 1.111204,-0.427225 1.937484,-1.0396176 L 41.859124,9.1713323 41.730908,8.7726022 41.360507,9.0146598 c -0.484371,0.3133451 -0.626833,0.3987301 -0.698064,0.3987301 -0.11397,0 -0.199447,-0.11388 -0.199447,-0.2278601 0,-0.142375 0.0285,-0.3417401 0.07123,-0.5696001 l 1.524344,-7.5620745 c 0.08548,-0.45572007 0.11397,-0.54120509 0.11397,-0.58389761 0.02849,-0.0709875 0.04274,-0.15667253 0.08548,-0.34184007 L 42.115555,-6.001566e-5 C 41.41749,0.28479005 40.719427,0.44146259 39.294806,0.65502515 l -0.09973,0.39883005 0.641079,0 c 0.384647,0 0.541356,0.1850676 0.541356,0.5980952 0,0.1566725 -0.01424,0.2420576 -0.05699,0.5412051 l -0.256432,1.5950204 z m -0.512863,2.1931156 c -0.156708,0.6265902 -0.755049,1.6520104 -1.510098,2.5918457 -0.413139,0.5270076 -0.840526,0.8402527 -1.111203,0.8402527 -0.199447,0 -0.341909,-0.1566725 -0.341909,-0.3845326 0,-0.9541328 0.384647,-2.7770132 0.797787,-3.7169485 0.327663,-0.7547677 0.584094,-0.9399352 1.296405,-0.9399352 0.398894,0 0.683818,0.05699 1.210927,0.2563551 l -0.341909,1.3529628 z"
     style="font-style:italic;font-variant:normal;font-weight:bold;font-stretch:normal;font-size:medium;line-height:125%;font-family:'URW Palladio L';-inkscape-font-specification:'URW Palladio L Italic';text-align:start;letter-spacing:0px;word-spacing:0px;text-anchor:start;fill:#000000;fill-opacity:1;stroke:none;stroke-width:1px;stroke-linecap:butt;stroke-linejoin:miter;stroke-opacity:1"
     id="path3520" />
  <path
     d="M 48.677941,4.0302335 C 48.008369,3.7453834 47.680707,3.6599984 47.224828,3.6599984 c -0.541356,0 -0.883265,0.084985 -1.267912,0.3275426 -0.755049,0.4984126 -1.738037,1.3243678 -1.965976,1.6947029 -0.498617,0.7547677 -1.01148,2.6915282 -1.01148,3.8308285 0,0.6265906 0.327662,1.0681126 0.769295,1.0681126 1.068465,0 2.364869,-1.2531801 3.689767,-3.5745732 l -0.52711,2.150423 c -0.07123,0.2706526 -0.09973,0.5412052 -0.09973,0.7832627 0,0.3988305 0.170954,0.6408875 0.455878,0.6408875 0.59834,0 1.410374,-0.45572 2.478839,-1.4098527 L 49.575448,8.7441072 49.290524,8.9719673 c -0.256432,0.199365 -0.669572,0.4272251 -0.783541,0.4272251 -0.11397,0 -0.156709,-0.070988 -0.199447,-0.3275426 0,-0.013997 0.05699,-0.2990476 0.142462,-0.7120752 L 49.091077,5.3119088 C 49.190805,4.8704862 49.290524,4.5144486 49.546955,3.816571 L 49.319016,3.6457009 48.677937,4.0302335 Z m -0.954496,0.6835802 c -0.199447,1.2816753 -0.669571,2.3782831 -1.467359,3.4463959 -0.584094,0.7689652 -1.12545,1.2531803 -1.42462,1.2531803 -0.142462,0 -0.256431,-0.2420576 -0.256431,-0.5269076 0,-0.5269077 0.313416,-1.979553 0.669571,-3.0760608 0.313417,-0.9827278 0.71231,-1.4099529 1.324897,-1.4099529 0.384648,0 0.655325,0.070988 1.153942,0.3133451 z m -1.396127,-1.751693 0.698063,0 2.193916,-1.2674778 c 0.398894,-0.22786 0.512864,-0.3845326 0.512864,-0.6692827 0,-0.35603755 -0.299171,-0.64088762 -0.669573,-0.64088762 -0.227939,0 -0.441632,0.12817753 -0.726556,0.42722511 L 46.327318,2.9621207 Z"
     style="font-style:italic;font-variant:normal;font-weight:bold;font-stretch:normal;font-size:medium;line-height:125%;font-family:'URW Palladio L';-inkscape-font-specification:'URW Palladio L Italic';text-align:start;letter-spacing:0px;word-spacing:0px;text-anchor:start;fill:#000000;fill-opacity:1;stroke:none;stroke-width:1px;stroke-linecap:butt;stroke-linejoin:miter;stroke-opacity:1"
     id="path3522" />
  <path
     d="m 50.567568,5.3262063 0.1852,0.3702351 0.484371,-0.3417401 c 0.256432,-0.17097 0.470125,-0.28485 0.598341,-0.28485 0.09973,0 0.170954,0.084985 0.170954,0.22786 0,0.3702351 0,0.3702351 -0.370401,2.2786006 l -0.341909,1.5238329 c -0.08547,0.3559376 -0.1852,0.6977777 -0.384647,1.3101702 l 0.156707,0.17087 c 0.384648,-0.128177 0.712311,-0.185167 1.538591,-0.270552 0.199447,-1.2959732 0.356154,-2.0080484 0.584094,-2.6489361 0.541356,-1.4668428 1.096958,-2.150423 1.752283,-2.150423 0.242186,0 0.441633,0.070988 0.740802,0.2706526 l 0.170955,-0.085985 c 0.01424,-0.5980951 0.07123,-1.0111227 0.284924,-1.951058 -0.142462,-0.05699 -0.242185,-0.084985 -0.384647,-0.084985 -0.398894,0 -0.75505,0.1708701 -1.096958,0.5269077 -0.384648,0.3987301 -0.612587,0.8117577 -1.709544,3.0333682 l 0.227939,-1.0111227 c 0.11397,-0.4700176 0.170954,-0.7547677 0.227939,-0.9826278 0.156708,-0.5981951 0.213693,-0.9114402 0.213693,-1.1108053 0,-0.2991475 -0.128215,-0.4557201 -0.356155,-0.4557201 -0.384648,0 -0.89751,0.2562551 -1.53859,0.7547677 l -1.153942,0.9114403 z m 2.977456,-2.2501055 1.168189,0 2.307885,-2.47796567 -0.797788,0 -1.923237,1.38135787 -1.296404,-1.38135787 -0.712311,0 1.253666,2.47796567 z"
     style="font-style:italic;font-variant:normal;font-weight:bold;font-stretch:normal;font-size:medium;line-height:125%;font-family:'URW Palladio L';-inkscape-font-specification:'URW Palladio L Italic';text-align:start;letter-spacing:0px;word-spacing:0px;text-anchor:start;fill:#000000;fill-opacity:1;stroke:none;stroke-width:1px;stroke-linecap:butt;stroke-linejoin:miter;stroke-opacity:1"
     id="path3524" />
  <path
     d="m 59.224583,14.198451 c 0.185201,-0.028 0.242186,-0.04299 0.455879,-0.09998 0.612587,-0.128178 0.883265,-0.17087 1.139696,-0.199365 0.05699,-0.854451 0.170955,-1.395656 0.683818,-3.417901 0.29917,0.07099 0.498617,0.09998 0.797788,0.09998 0.470124,0 0.869018,-0.08498 1.225173,-0.242057 0.384648,-0.185168 1.139696,-0.7120756 1.681052,-1.1677957 0.926003,-0.7975602 1.524344,-2.4067781 1.524344,-4.101481 0,-0.9399353 -0.270678,-1.4098529 -0.797788,-1.4098529 -0.669571,0 -1.339142,0.2990476 -2.108437,0.9398353 -0.626834,0.5270076 -0.997235,1.0111227 -1.666806,2.1362255 0.08548,-0.3987301 0.1852,-0.7974602 0.213692,-0.9684302 0.199447,-0.8544503 0.284925,-1.3671604 0.284925,-1.666208 0,-0.28485 -0.128216,-0.4414226 -0.384647,-0.4414226 -0.341909,0 -0.812035,0.2135626 -1.453114,0.6977777 l -1.196681,0.8829452 0.185201,0.3845326 0.455879,-0.3133451 c 0.227938,-0.1566725 0.427385,-0.2420575 0.584094,-0.2420575 0.09973,0 0.156708,0.084985 0.156708,0.22786 0,0.4272251 0,0.4272251 -0.341909,2.2216106 L 59.538,12.361373 c -0.1852,0.783263 -0.284924,1.167695 -0.455879,1.737396 l 0.142462,0.09998 z m 2.649795,-5.5825213 c 0.227939,-0.9969253 0.398894,-1.4383479 0.883264,-2.1789181 0.669572,-1.0254202 1.42462,-1.6662079 1.95173,-1.6662079 0.256432,0 0.398893,0.2847501 0.398893,0.8259552 0,0.9826278 -0.427385,2.5776482 -0.954495,3.5175834 -0.270678,0.4842151 -0.683818,0.7690652 -1.139697,0.7690652 -0.455877,0 -0.869018,-0.11398 -1.339142,-0.3845326 l 0.199447,-0.8829452 z"
     style="font-style:italic;font-variant:normal;font-weight:bold;font-stretch:normal;font-size:medium;line-height:125%;font-family:'URW Palladio L';-inkscape-font-specification:'URW Palladio L Italic';text-align:start;letter-spacing:0px;word-spacing:0px;text-anchor:start;fill:#000000;fill-opacity:1;stroke:none;stroke-width:1px;stroke-linecap:butt;stroke-linejoin:miter;stroke-opacity:1"
     id="path3526" />
  <path
     d="m 67.596233,5.3262063 0.1852,0.3702351 0.484371,-0.3417401 c 0.256432,-0.17097 0.470125,-0.28485 0.598341,-0.28485 0.09973,0 0.170955,0.084985 0.170955,0.22786 0,0.3702351 0,0.3702351 -0.370402,2.2786006 l -0.341909,1.5238329 c -0.08548,0.3559376 -0.185201,0.6977777 -0.384648,1.3101702 l 0.156709,0.17087 c 0.384647,-0.128177 0.71231,-0.185167 1.53859,-0.270552 0.199447,-1.2959732 0.356155,-2.0080484 0.584094,-2.6489361 0.541356,-1.4668428 1.096958,-2.150423 1.752283,-2.150423 0.242186,0 0.441633,0.070988 0.740803,0.2706526 l 0.170954,-0.085985 c 0.01424,-0.5980951 0.07123,-1.0111227 0.284925,-1.951058 -0.142463,-0.05699 -0.242186,-0.084985 -0.384649,-0.084985 -0.398892,0 -0.755048,0.1708701 -1.096957,0.5269077 -0.384647,0.3987301 -0.612586,0.8117577 -1.709544,3.0333682 L 70.203288,6.2090516 C 70.317257,5.739034 70.374242,5.4542839 70.431227,5.2264238 70.587936,4.6282287 70.64492,4.3149836 70.64492,4.1156185 c 0,-0.2991475 -0.128216,-0.4557201 -0.356155,-0.4557201 -0.384647,0 -0.897511,0.2562551 -1.53859,0.7547677 l -1.153942,0.9114403 z"
     style="font-style:italic;font-variant:normal;font-weight:bold;font-stretch:normal;font-size:medium;line-height:125%;font-family:'URW Palladio L';-inkscape-font-specification:'URW Palladio L Italic';text-align:start;letter-spacing:0px;word-spacing:0px;text-anchor:start;fill:#000000;fill-opacity:1;stroke:none;stroke-width:1px;stroke-linecap:butt;stroke-linejoin:miter;stroke-opacity:1"
     id="path3528" />
  <path
     d="m 77.834576,3.6599984 c -0.755049,0 -1.552836,0.2420576 -2.293639,0.7119752 -0.883265,0.5554027 -1.367636,1.1677953 -1.666806,2.093533 -0.227939,0.6977777 -0.341909,1.3671604 -0.341909,1.951058 0,1.4383479 0.712311,2.1646204 2.108438,2.1646204 0.655325,0 1.210928,-0.128177 1.780776,-0.384532 0.797787,-0.384533 1.609821,-1.0823107 1.923238,-1.6519108 0.384647,-0.6835802 0.655325,-1.8513755 0.655325,-2.7486182 0,-1.3528629 -0.797788,-2.1361256 -2.165423,-2.1361256 z m -0.598341,0.6265902 c 0.683818,0 1.139696,0.5696001 1.139696,1.4525454 0,1.2817753 -0.370401,2.7771132 -0.869018,3.4890884 -0.341909,0.4842151 -0.740802,0.7263726 -1.196681,0.7263726 -0.71231,0 -1.153942,-0.5697001 -1.153942,-1.4668429 0,-1.2817753 0.370401,-2.7628157 0.869018,-3.4748908 0.341909,-0.4842152 0.740803,-0.7262727 1.210927,-0.7262727 z"
     style="font-style:italic;font-variant:normal;font-weight:bold;font-stretch:normal;font-size:medium;line-height:125%;font-family:'URW Palladio L';-inkscape-font-specification:'URW Palladio L Italic';text-align:start;letter-spacing:0px;word-spacing:0px;text-anchor:start;fill:#000000;fill-opacity:1;stroke:none;stroke-width:1px;stroke-linecap:butt;stroke-linejoin:miter;stroke-opacity:1"
     id="path3530" />
  <path
     d="m 0,27.78457 0.22793926,0.427225 c 0.35615509,-0.28485 0.66957158,-0.384533 1.09695764,-0.384533 0.3561551,0 0.6980641,0.04299 1.0399729,0.142475 1.0827115,0.299048 1.7665292,0.412928 2.3933622,0.412928 0.5983405,0 0.7265564,-0.128178 0.8120336,-0.712075 0.028492,-0.256256 0.2564316,-1.068013 0.4131399,-1.495238 l -0.3988937,-0.028 -0.3988937,0.825955 c -0.099724,0.014 -0.1567082,0.014 -0.1852006,0.014 -0.213693,0 -0.4416324,-0.028 -0.769295,-0.08498 -0.555602,-0.09998 -1.0257267,-0.142375 -1.4531128,-0.142375 -0.3704013,0 -0.7123101,0.08498 -1.3961279,0.327543 l 4.6727548,-4.799359 0.1994467,-0.712075 -0.284924,-0.11388 -0.1282158,0.185167 c -0.142462,0.213563 -0.4701248,0.34174 -0.8262798,0.34174 -0.4131399,0 -0.8832647,-0.07099 -1.5955748,-0.256355 -0.7550488,-0.199365 -1.1112039,-0.270552 -1.3533893,-0.270552 -0.2279393,0 -0.5128634,0.05699 -0.8120337,0.142375 l -0.64107914,1.979553 0.41313994,0.04299 0.3276626,-0.74047 c 0.1709545,0.014 0.2279393,0.02899 0.3134165,0.02899 0.8547723,0.09998 1.53859,0.156573 1.9944685,0.156573 0.4273861,0 0.7550488,-0.08499 1.2679121,-0.327543 L 0,27.78457 Z m 3.4475813,-6.90699 1.1681887,0 2.307885,-2.477965 -0.7977874,0 -1.9232375,1.381358 -1.2964045,-1.381358 -0.7123103,0 1.253666,2.477965 z"
     style="font-style:italic;font-variant:normal;font-weight:bold;font-stretch:normal;font-size:medium;line-height:125%;font-family:'URW Palladio L';-inkscape-font-specification:'URW Palladio L Italic';text-align:start;letter-spacing:0px;word-spacing:0px;text-anchor:start;fill:#000000;fill-opacity:1;stroke:none;stroke-width:1px;stroke-linecap:butt;stroke-linejoin:miter;stroke-opacity:1"
     id="path3532" />
  <path
     d="m 12.052288,26.517092 c -1.068465,0.68358 -1.723791,0.954133 -2.3078847,0.954133 -0.6553254,0 -1.0399729,-0.427226 -1.0399729,-1.167696 0,-0.28485 0.014247,-0.498512 0.071231,-0.91144 1.2109273,-0.270653 1.7380381,-0.427325 2.3363781,-0.712075 1.01148,-0.484215 1.524344,-1.1393 1.524344,-1.965356 0,-0.768965 -0.512864,-1.25318 -1.324897,-1.25318 -1.125451,0 -2.8207491,0.982628 -3.3763511,1.965255 -0.4701247,0.826056 -0.8547722,2.321294 -0.8547722,3.289724 0,1.039618 0.6553253,1.666208 1.7237906,1.666208 0.8547722,0 1.5670827,-0.28475 2.9774567,-1.210488 l 0.213693,-0.128178 c 0.05699,-0.04299 0.128216,-0.08498 0.199447,-0.128177 l -0.142462,-0.39873 z M 8.8326463,25.021754 9.0320931,24.195799 c 0.3134165,-1.324468 0.8832647,-2.050741 1.5813279,-2.050741 0.427387,0 0.683818,0.28485 0.683818,0.754768 0,0.868748 -0.726556,1.609218 -1.8804984,1.951058 l -0.5840943,0.17087 z"
     style="font-style:italic;font-variant:normal;font-weight:bold;font-stretch:normal;font-size:medium;line-height:125%;font-family:'URW Palladio L';-inkscape-font-specification:'URW Palladio L Italic';text-align:start;letter-spacing:0px;word-spacing:0px;text-anchor:start;fill:#000000;fill-opacity:1;stroke:none;stroke-width:1px;stroke-linecap:butt;stroke-linejoin:miter;stroke-opacity:1"
     id="path3534" />
  <path
     d="m 13.425044,23.426733 0.455878,-0.313245 c 0.22794,-0.156672 0.427387,-0.242157 0.584094,-0.242157 0.09973,0 0.156709,0.08498 0.156709,0.242157 0,0.783263 -0.555602,3.090259 -1.210927,5.055614 l 0.142461,0.156673 c 0.313417,-0.09998 0.997235,-0.213663 1.510098,-0.242158 0.08548,-0.655085 0.327663,-1.65201 0.512863,-2.136125 0.541356,-1.509636 1.837761,-3.076161 2.521579,-3.076161 0.1852,0 0.284924,0.09998 0.284924,0.299047 0,0.22786 -0.142462,0.868748 -0.356155,1.595021 -0.455879,1.59502 -0.683818,2.606143 -0.683818,3.019171 0,0.34174 0.213693,0.598095 0.512864,0.598095 0.512862,0 1.08271,-0.28475 2.151176,-1.082311 l 0.41314,-0.299047 -0.1852,-0.384533 -0.413141,0.28485 c -0.341909,0.22786 -0.498617,0.313345 -0.641079,0.313345 -0.09973,0 -0.156708,-0.08498 -0.156708,-0.242157 0,-0.256355 0.07123,-0.655085 0.185201,-1.110805 l 0.683818,-2.620341 c 0.142462,-0.541205 0.227939,-0.996925 0.227939,-1.182093 0,-0.356037 -0.227939,-0.598095 -0.555603,-0.598095 -0.669571,0 -1.823513,0.726273 -2.778009,1.780188 -0.498617,0.526908 -0.740803,0.882945 -1.23942,1.737395 l 0.242185,-0.85445 c 0.398894,-1.42415 0.484371,-1.837178 0.484371,-2.235908 0,-0.270552 -0.142462,-0.427225 -0.384647,-0.427225 -0.341909,0 -0.812033,0.213563 -1.453113,0.697778 l -1.19668,0.882945 0.1852,0.384532 z"
     style="font-style:italic;font-variant:normal;font-weight:bold;font-stretch:normal;font-size:medium;line-height:125%;font-family:'URW Palladio L';-inkscape-font-specification:'URW Palladio L Italic';text-align:start;letter-spacing:0px;word-spacing:0px;text-anchor:start;fill:#000000;fill-opacity:1;stroke:none;stroke-width:1px;stroke-linecap:butt;stroke-linejoin:miter;stroke-opacity:1"
     id="path3536" />
  <path
     d="m 21.312321,23.455228 c 0.484371,-0.384532 0.869019,-0.583897 1.153943,-0.583897 0.156708,0 0.256432,0.09998 0.256432,0.270652 0,0.04299 0,0.11388 -0.01424,0.199365 l -0.270677,2.591846 c -0.05698,0.583898 -0.08547,0.925738 -0.08547,1.210488 0,0.712075 0.284924,1.238983 0.669572,1.238983 0.398893,0 0.968742,-0.299048 1.53859,-0.79746 0.555601,-0.484216 0.869018,-0.882946 1.42462,-1.865573 l -0.584094,2.363985 c -0.555602,2.250106 -1.23942,3.261229 -2.165424,3.261229 -0.555601,0 -0.883264,-0.341741 -0.883264,-0.939936 0,-0.04299 0,-0.17087 0.01424,-0.270552 l -0.256432,-0.08498 -0.883265,0.5697 c 0.04274,0.370235 0.08548,0.555402 0.213694,0.754767 0.213693,0.384533 0.683818,0.626591 1.182435,0.626591 1.12545,0 2.336378,-0.811758 3.162657,-2.121928 0.726557,-1.125003 0.926004,-1.680406 1.65256,-4.372034 0.612586,-2.207413 0.926003,-3.232733 1.196681,-3.816631 l -0.170955,-0.17087 c -0.612587,0.185067 -1.096957,0.270552 -1.567082,0.256355 -0.02849,0.982628 -0.441632,2.392481 -1.025727,3.489088 -0.59834,1.125003 -1.324897,1.922563 -1.752283,1.922563 -0.156708,0 -0.242185,-0.213662 -0.242185,-0.583897 0,-0.213663 0.01424,-0.427225 0.05699,-0.783263 l 0.270677,-2.321393 c 0.04274,-0.39873 0.07123,-0.79746 0.07123,-1.1393 0,-0.555403 -0.213694,-0.897143 -0.555603,-0.897143 -0.327662,0 -0.911756,0.28485 -1.467359,0.712075 l -1.139696,0.882945 0.199447,0.39873 z"
     style="font-style:italic;font-variant:normal;font-weight:bold;font-stretch:normal;font-size:medium;line-height:125%;font-family:'URW Palladio L';-inkscape-font-specification:'URW Palladio L Italic';text-align:start;letter-spacing:0px;word-spacing:0px;text-anchor:start;fill:#000000;fill-opacity:1;stroke:none;stroke-width:1px;stroke-linecap:butt;stroke-linejoin:miter;stroke-opacity:1"
     id="path3538" />
</svg>
